7979
518048
15945
517373
518499
517151
9133
3375
2408
516967
6800
12353
6451
521307
17228
13112
520502
2394
517298
13952
62
516974
7881
16674
20282
20479
7764
531667
7621
13082
1599
21041
6334
5324
516219
9380
20161
19640
11259
517168
13514
5467
1704
17648
22305
18685
1225
16320
517229
11110
24624
9016
17572
5249
24491
4011
18377
21304
18425
16777
9234
11790
5366
8413
15404
3492
4024
517076
18247
7995
21564
25250
15561
17433
14681
15851
20358
14122
8530
14739
5568
475
516431
24567
49511
16601
8080
17460
8383
517915
9625
519584
3577
23249
7038
6464
152
85560
48
293316
25184
8598
517847
1368
2714
17620
19930
15431
517359
531407
18443
9638
517120
13381
517489
18500
49397
9289
20910
657
521895
30216
475826
39541
3900
20518
518581
19323
14168
9771
16526
19761
7924
532219
12568
8657
3317
8035
12045
3069
1007
25906
14515
5959
9999
20899
20880
9449
3867
20488
6116
25719
14953
4095
6233
1384
215
8064
6637
11138
22248
209704
14971
2730
19903
2176
2798
5252
334
13868
13064
2600
24820
5409
18489
5845
18658
3737
18779
4356
7692
4008
7865
13671
24240
433901
12876
20590
22873
12214
21582
534321
17116
11316
16816
22314
520458
519737
12326
11697
20666
1977
18948
17871
15329
12166
8107
15589
312
7748
16339
10913
3636
505
24549
17545
25933
2671
6318
18292
525293
14083
18582
10388
520489
17022
12241
20330
517106
11222
8833
14289
8178
3825
22949
19471
17264
8761
8208
20040
4981
519676
1036
520366
862
21920
13318
2831
13895
532226
14010
10230
11969
14579
517335
432649
9120
11558
10810
15217
5379
6855
3421
16348
7852
4239
16982
20291
19547
8602
517328
22284
13130
15459
517700
19051
23490
13550
515919
516226
10892
6145
10874
18144
521796
438982
10397
532363
15598
20152
16003
11044
60132
21032
8266
2596
24008
10285
16722
3115
19079
7197
374536
378
271
3984
25634
16124
16571
7634
518574
3841
10294
1906
6565
13448
2743
463225
13028
516561
515940
306344
3274
533922
10146
18162
24576
15169
18265
531308
24585
14869
12399
8859
15888
22453
516318
12380
7184
43926
8497
8527
8439
22761
517663
475017
23025
7940
2860
7416
21854
13617
21537
529110
11071
521673
29487
22800
417093
11389
10212
18087
20974
14551
16900
12296
20433
11240
21489
13587
3258
14074
8194
19501
13961
15860
25894
16656
7911
18069
535928
11848
23986
9928
5773
517649
8950
583
15196
518192
527305
516646
21779
18199
22912
516783
6914
8963
5164
22958
100434
19293
16302
7025
12764
3030
11709
16692
5832
3203
23276
2381
6901
12559
528452
3320
12438
40633
4053
5308
21180
19659
14757
10584
5119
12586
20536
15413
529967
22976
9423
143413
765
2479
3753
518093
14636
516042
14654
9784
23641
525163
10726
8934
518710
17497
8686
16759
3391
13886
3506
16142
21500
5412
22275
21069
24633
518178
25812
517397
521628
10771
17367
516332
2349
12719
16423
531094
20077
525262
15468
8468
3043
18304
22145
18461
6161
13411
103938
531469
9191
522485
22891
1414
26091
21461
14702
12728
10865
16469
4154
4314
5786
2815
18359
21667
9944
17769
1720
5340
8891
12942
6712
22604
14225
19118
520496
8703
10418
3144
15066
14467
16115
3522
9511
5933
4268
14364
14887
12812
519607
24781
18603
11606
15534
10986
2251
3681
516134
10856
11679
533809
13327
16964
21845
518000
10182
12287
23678
7894
293
6291
13747
4659
18920
23940
22387
19136
16795
10007
525903
17152
3854
18591
19444
6581
4587
20639
23717
517656
4301
12250
12746
21256
9843
14805
11521
2482
306771
523129
520373
3388
8660
8947
22323
19743
4819
10744
532394
5311
12111
15280
8820
11727
531209
5890
18117
517014
12175
516493
11857
15619
396855
516
25036
12205
14476
535133
21751
19097
10641
8370
301
12036
16106
6624
19592
183011
516851
8989
21621
3290
23173
25513
10669
526029
1427
521321
19024
6754
25399
519515
17750
518833
516639
290409
17965
516936
20527
12513
6275
517458
20497
5962
49566
2033
16599
25102
15767
517175
1078
23977
516271
16218
10098
532875
9609
6422
12625
23258
21265
21050
22798
529066
2192
7793
9465
8790
516202
533847
5438
522553
6376
13644
16179
18975
10249
12700
19042
9205
25063
4255
4499
516547
4327
14243
17723
519805
17198
1661
20620
17451
18993
21546
525255
25090
20983
5946
248
14328
22967
19622
12906
11866
518116
17107
8295
9726
9537
10315
5803
17590
18470
14485
10360
5483
17974
20929
9003
10539
517052
3649
22789
14506
2538
518208
3610
20844
11277
7559
22622
23829
19891
22109
411194
14560
26073
525279
5281
511689
16713
533731
9700
6594
17639
7849
13699
19332
17929
17956
947
2235
6002
458762
23016
15682
8918
4923
9090
13493
48882
17817
520694
14823
11147
11772
17992
529127
16517
9931
18715
21331
11464
4675
16021
518239
14391
10678
7823
22202
6477
435464
516905
529097
519539
532004
517144
530169
16254
10267
24213
516776
16290
17095
17376
24062
21283
529080
11295
8787
13680
24017
8862
10557
2828
15365
13037
25643
19798
16441
7067
14627
3102
1010
515971
13354
19538
486
520359
4806
7490
3359
23632
438432
4183
4633
12960
518666
16768
10061
1296
23267
8817
15806
11941
25885
15909
25148
3694
20013
20853
518154
396299
20992
2378
9830
15525
452474
12951
7461
12018
18434
5601
16405
7096
16366
3678
8341
19556
17291
16197
49959
25447
13596
22677
11905
47528
6930
11231
16414
11802
3623
24277
516523
4369
6897
13774
23285
11419
30364
6288
21201
13729
12607
20312
8051
533168
3014
8615
17938
23856
516189
5021
6350
6031
12102
16227
12504
517830
12308
2958
516462
17693
20116
11615
3926
12894
74722
12652
7328
6783
228499
8312
16030
8279
6099
10490
15114
296858
14038
20611
1270
18126
15123
21630
516110
11642
20442
7937
518055
2248
16955
8019
20198
15507
10191
15954
23397
529974
3229
9218
79147
14841
14234
24642
23191
4037
2437
9670
17796
5757
524894
10708
15815
6653
12689
14944
3724
516356
436948
23847
9986
516530
3809
20376
12643
3001
2075
517908
24295
1850
516653
8022
525316
16786
2323
2046
2509
15842
25410
6158
9263
517083
13532
22510
25018
516080
2336
25755
517939
25278
16535
16357
7009
517496
4835
11932
12054
6174
8758
12595
21247
519553
776
448075
16731
23780
13710
3548
10342
17406
13756
12072
15981
19716
14113
13505
11923
9452
18386
11633
22190
20246
2639
22480
22565
531735
7331
19668
16973
13279
277156
14784
7647
10119
15440
517731
23575
1863
1717
7836
1586
23931
7041
18818
515742
21171
2613
519720
6389
531056
2945
519881
517113
530374
4529
18890
25027
3463
12670
2668
4040
5991
12456
16160
7878
5470
16740
16553
2020
516660
5425
21676
4079
7591
531674
21984
519867
21229
15897
11165
4213
15628
447850
225407
8484
525972
5089
851
19341
26046
10838
13420
7689
3476
11101
19453
23472
2974
7070
20143
2264
24204
8846
11745
21425
13738
11204
6406
12317
1081
20424
9306
17321
16937
13635
16311
516059
709
19613
9250
8745
13523
10306
1182
15664
10463
4734
22163
3027
10575
10968
516264
516417
20648
17219
5395
17068
528544
5555
2886
13046
15972
176507
7810
18096
13907
13363
18555
23669
517304
24
516448
6419
15262
8253
20059
2873
9029
15253
22695
18331
517755
1948
15673
18911
13345
20657
516899
10799
18546
20406
15374
15730
17385
519683
17666
21470
7227
11875
529646
13484
20826
531452
12522
20219
5861
530534
8992
455749
18135
20004
23614
17189
25335
516301
2567
13989
16629
16683
516004
10324
456964
4112
19686
5106
18676
5542
9814
517403
635
19873
6132
12997
12344
13206
9739
21153
8309
7214
15383
20022
914
2088
13251
22855
18050
18407
516011
11567
12139
517090
22211
20602
15637
14935
23098
6190
22716
10959
19154
23548
6073
173805
517892
25746
17581
17554
18733
22332
9755
3766
3968
21005
20509
10696
122906
21591
6103
22538
4125
65089
21872
3131
165138
13167
531490
4167
9292
8240
4297
20189
20769
517809
516400
24192
8442
16012
7403
438920
16843
4398
13176
12915
14962
18612
10847
17059
11811
5904
8237
10593
4516
25193
2961
19631
47621
6347
62899
14131
438913
16188
19828
19912
21555
23119
408
3098
482675
453
23922
49388
646
20581
8976
519850
6666
22846
516622
16393
523471
9742
16496
10445
16151
3779
15299
22369
521048
6985
516233
1342
8048
10829
8400
16085
14270
10605
3607
23409
2769
8396
19949
12698
23874
19145
17303
17442
19921
11594
10155
15039
14533
16861
17255
12027
1212
6884
295565
11334
244659
521482
4330
22220
3072
1603
23605
19976
2916
15833
5210
6927
19202
516035
16478
4196
2899
15235
16209
523136
516592
481825
9104
519485
517311
22341
131904
7650
10922
515995
20965
12429
19088
17170
517793
8282
10940
17518
18340
12803
517984
25120
21939
22837
9335
12335
516912
530848
12193
25773
6187
4109
291624
291556
291617
22462
19819
6217
291525
291549
291570
533618
36511
4372
1922
518789
522720
36678
531636
22015
536006
525514
34386
26804
494122
518765
31235
21274
535713
38456
41335
33732
47434
40129
526753
14597
522058
35408
45656
000001
8543
24790
521642
22529
291495
7982
5018
5034
12184
1472
25223
79
6392
10931
518086
14216
520410
528025
12483
20714
517557
519829
497
13701
2495
1557
389
521680
9074
3551
4066
20228
22172
18797
8556
10100
15132
21612
517434
10043
516691
9508
11400
8093
9869
516998
16610
19499
17826
2059
9582
3913
18742
3489
3795
2017
13970
2219
9276
1674
7344
2583
3896
3245
12465
7517
19855
13626
16991
5975
6028
24802
49539
17983
433208
17134
21694
10276
226
6738
19800
1805
9087
12474
13194
7298
3997
1179
2062
24231
16487
23810
13608
11268
21096
435921
16049
19426
10427
517267
516363
517045
12081
7676
9494
11839
3740
17899
15543
19752
11325
517502
9973
6246
515759
5728
13934
18153
2903
45674
19462
17488
449375
2642
15516
520427
7751
17741
1629
14896
24165
23379
122968
48677
6871
521789
14908
873
18032
20554
12924
549
25214
1153
25232
22136
15477
9957
531261
2626
10481
18564
6015
516349
15057
204
9319
15758
22668
7054
521512
24839
6969
2150
19163
9612
20134
18809
517342
6842
4486
49445
7908
390
15020
16245
22613
6998
21135
13224
21087
17844
18902
13000
22725
13121
7083
297806
519706
12410
10016
518123
17862
14092
21407
517885
107435
2844
10203
24099
48837
3157
14252
2440
517717
13783
11099
11996
15048
19127
17161
1254
11437
18210
17880
21434
516165
12148
1371
14047
6523
4864
15002
16665
271608
11651
5441
15794
24268
21238
2727
528063
160126
511399
7719
15271
3450
10687
9524
12090
24594
13943
1733
4561
5177
12157
11549
5887
516295
456605
3186
13103
17527
13297
516455
13019
11008
1108
522379
13916
14672
17808
23427
3434
9915
15486
9683
5148
15936
18788
23454
21809
373960
531926
5496
26028
6709
7722
25568
12858
10472
17536
10164
1209
8123
22181
12269
522089
534130
534079
15655
10173
516585
8572
438449
14412
24035
12737
3346
39608
19211
532073
6220
8325
8426
10333
515988
22743
15600
22547
6259
11213
19480
3593
14618
7012
438241
1111
21126
11820
4936
518017
12232
15392
517533
12988
15824
16508
22444
12278
5799
18322
10511
19958
4907
13336
518024
4545
16638
11017
25344
11491
524696
25670
24914
14766
11660
19015
163
26064
438425
16946
519874
518253
17125
18694
18621
21827
10089
9667
25474
517465
8774
5265
21528
9117
516875
3519
516158
519843
15310
2570
16580
21685
19172
23034
533182
6725
10070
6060
9641
12634
25616
528506
3173
527411
6695
8673
19060
8471
13466
7429
109127
20394
7953
10614
516578
10883
11950
8631
7807
16919
22499
20750
8152
2701
24521
10128
23593
13215
6682
25951
10995
23511
6552
10502
516424
23230
22770
80145
20264
20031
7663
7357
18498
20796
22592
24352
9960
10258
11062
410726
8136
13925
23904
141
23959
10762
23566
24512
680
9872
517205
274225
1469
11473
18836
21386
517243
20938
1094
52557
17732
17013
19220
516721
17040
13390
17349
572
25326
7315
9058
8732
15075
49481
24446
516769
9654
12531
17657
15301
9351
530824
8181
15552
13073
19734
14588
4848
420
21023
16898
4747
2857
22583
516103
304195
19181
12063
522706
6549
2222
20572
6321
19565
15749
10548
4242
21948
189446
2105
11512
517038
14065
529103
8224
87414
18872
9348
10735
14775
16704
49557
534932
518949
9393
530695
9436
15150
517564
6507
4792
10052
6448
10623
23463
1313
180951
24558
3056
519621
17853
11352
18667
20349
16236
10717
3418
11080
5278
12791
49584
3870
13185
518109
434454
1951
20732
522140
9377
6972
12773
4662
18005
9162
3939
7546
4646
7302
17424
23212
516608
25876
15141
516516
7201
516806
17273
24156
6640
12577
24996
11987
24606
25054
8514
2554
7575
516837
1241
21760
23100
13998
447317
17563
2541
14177
2684
13662
7966
9364
16432
20200
517212
464
479804
1498
8875
7399
21210
9045
532332
20545
24316
10632
517977
5920
18283
23315
516028
227427
114406
1300
20862
5584
23324
3128
24848
7126
8367
291532
435242
20563
517779
13288
6741
cpp2
docusafe
pracownikccp1
pracownikcpp11
pracownikcpp2
micskuza
eodb
referent
cpp1
eodf
eodi
eodh
eodd
eode
jeffo
eodj
karkonkol
eoda
eodc